<svg viewBox="0 0 40 16" xmlns="http://www.w3.org/2000/svg" fill-rule="evenodd" clip-rule="evenodd" stroke-linejoin="round" stroke-miterlimit="1.414">
  <clipPath id="a">
    <path d="M0 0h40v16H0z"/>
  </clipPath>
  <g clip-path="url(#a)">
    <path d="M9.918 10.2V16l-9.9-8 9.9-8v6.2h30.1v4h-30.1z" fill="#14892c"/>
  </g>
</svg>
